build/dump.vcd
$date
	Tue May  9 14:56:12 2023
$end
$version
	Icarus Verilog
$end
$timescale
	1s
$end
$scope module imuldiv_MulDivReqMsgToBits $end
$var wire 32 ! a [31:0] $end
$var wire 32 " b [31:0] $end
$var wire 3 # func [2:0] $end
$var wire 67 $ bits [66:0] $end
$upscope $end
$scope module imuldiv_MulDivReqMsgToStr $end
$var wire 67 % msg [66:0] $end
$var wire 3 & func [2:0] $end
$var wire 32 ' b [31:0] $end
$var wire 32 ( a [31:0] $end
$var reg 160 ) full_str [159:0] $end
$var reg 16 * tiny_str [15:0] $end
$upscope $end
$scope module tester $end
$var wire 1 + t0_done $end
$var reg 1 , clk $end
$var reg 1024 - next_test_case_num [1023:0] $end
$var reg 1 . t0_reset $end
$var reg 1024 / test_case_num [1023:0] $end
$var reg 2 0 verbose [1:0] $end
$scope module t0 $end
$var wire 1 , clk $end
$var wire 1 + done $end
$var wire 1 . reset $end
$var wire 1 1 sink_Mhl $end
$var wire 1 2 sink_X2hl $end
$var wire 1 3 sink_X3hl $end
$var wire 1 4 sink_Xhl $end
$var wire 1 5 src_val $end
$var wire 1 6 src_rdy $end
$var wire 3 7 src_msg_fn [2:0] $end
$var wire 32 8 src_msg_b [31:0] $end
$var wire 32 9 src_msg_a [31:0] $end
$var wire 67 : src_msg [66:0] $end
$var wire 1 ; src_done $end
$var wire 1 < sink_val $end
$var wire 1 = sink_rdy $end
$var wire 64 > sink_msg [63:0] $end
$var wire 1 ? sink_done $end
$scope module msgfrombits $end
$var wire 3 @ func [2:0] $end
$var wire 67 A bits [66:0] $end
$var wire 32 B b [31:0] $end
$var wire 32 C a [31:0] $end
$upscope $end
$scope module muldiv $end
$var wire 1 , clk $end
$var wire 1 D muldivreq_go $end
$var wire 32 E muldivreq_msg_a [31:0] $end
$var wire 32 F muldivreq_msg_b [31:0] $end
$var wire 3 G muldivreq_msg_fn [2:0] $end
$var wire 1 < muldivresp_val $end
$var wire 1 . reset $end
$var wire 1 H sign $end
$var wire 1 I stall $end
$var wire 1 1 stall_Mhl $end
$var wire 1 2 stall_X2hl $end
$var wire 1 3 stall_X3hl $end
$var wire 1 4 stall_Xhl $end
$var wire 1 J val2_next $end
$var wire 1 K val1_next $end
$var wire 64 L result0 [63:0] $end
$var wire 32 M remainderu [31:0] $end
$var wire 32 N remainder_raw [31:0] $end
$var wire 32 O remainder [31:0] $end
$var wire 32 P quotientu [31:0] $end
$var wire 32 Q quotient_raw [31:0] $end
$var wire 32 R quotient [31:0] $end
$var wire 64 S productu [63:0] $end
$var wire 64 T productsu_raw [63:0] $end
$var wire 64 U productsu [63:0] $end
$var wire 64 V product_raw [63:0] $end
$var wire 64 W product [63:0] $end
$var wire 1 = muldivresp_rdy $end
$var wire 64 X muldivresp_msg_result [63:0] $end
$var wire 1 5 muldivreq_val $end
$var wire 1 6 muldivreq_rdy $end
$var wire 32 Y b_unsign [31:0] $end
$var wire 32 Z a_unsign [31:0] $end
$var reg 32 [ a_reg [31:0] $end
$var reg 32 \ b_reg [31:0] $end
$var reg 3 ] fn_reg [2:0] $end
$var reg 64 ^ result1_reg [63:0] $end
$var reg 64 _ result2_reg [63:0] $end
$var reg 64 ` result3_reg [63:0] $end
$var reg 1 a val0_reg $end
$var reg 1 b val1_reg $end
$var reg 1 c val2_reg $end
$var reg 1 d val3_reg $end
$upscope $end
$scope module sink $end
$var wire 1 , clk $end
$var wire 64 e msg [63:0] $end
$var wire 1 . reset $end
$var wire 1 < val $end
$var wire 1 f sink_val $end
$var wire 1 g sink_rdy $end
$var wire 64 h sink_msg [63:0] $end
$var wire 1 = rdy $end
$var wire 1 ? done $end
$scope module rand_delay $end
$var wire 1 , clk $end
$var wire 64 i in_msg [63:0] $end
$var wire 1 < in_val $end
$var wire 64 j out_msg [63:0] $end
$var wire 1 . reset $end
$var wire 1 k zero_cycle_delay $end
$var wire 32 l rand_delay [31:0] $end
$var wire 1 g out_rdy $end
$var reg 1 = in_rdy $end
$var reg 1 f out_val $end
$var reg 1 m rand_delay_en $end
$var reg 32 n rand_delay_next [31:0] $end
$var reg 32 o rand_num [31:0] $end
$var reg 1 p state $end
$var reg 1 q state_next $end
$scope begin genblk1 $end
$upscope $end
$scope module rand_delay_pf $end
$var wire 1 , clk $end
$var wire 32 r d_p [31:0] $end
$var wire 1 m en_p $end
$var wire 1 . reset_p $end
$var reg 32 s q_np [31:0] $end
$upscope $end
$upscope $end
$scope module sink $end
$var wire 1 , clk $end
$var wire 1 t go $end
$var wire 1 u index_en $end
$var wire 64 v msg [63:0] $end
$var wire 1 . reset $end
$var wire 1 f val $end
$var wire 1 g rdy $end
$var wire 10 w index_next [9:0] $end
$var wire 10 x index [9:0] $end
$var wire 1 ? done $end
$var reg 2 y verbose [1:0] $end
$scope module index_pf $end
$var wire 1 , clk $end
$var wire 10 z d_p [9:0] $end
$var wire 1 u en_p $end
$var wire 1 . reset_p $end
$var reg 10 { q_np [9:0] $end
$upscope $end
$upscope $end
$upscope $end
$scope module src $end
$var wire 1 , clk $end
$var wire 1 6 rdy $end
$var wire 1 . reset $end
$var wire 1 5 val $end
$var wire 1 | src_val $end
$var wire 1 } src_rdy $end
$var wire 67 ~ src_msg [66:0] $end
$var wire 67 !" msg [66:0] $end
$var wire 1 ; done $end
$scope module rand_delay $end
$var wire 1 , clk $end
$var wire 67 "" out_msg [66:0] $end
$var wire 1 6 out_rdy $end
$var wire 1 . reset $end
$var wire 1 #" zero_cycle_delay $end
$var wire 32 $" rand_delay [31:0] $end
$var wire 1 | in_val $end
$var wire 67 %" in_msg [66:0] $end
$var reg 1 } in_rdy $end
$var reg 1 5 out_val $end
$var reg 1 &" rand_delay_en $end
$var reg 32 '" rand_delay_next [31:0] $end
$var reg 32 (" rand_num [31:0] $end
$var reg 1 )" state $end
$var reg 1 *" state_next $end
$scope begin genblk1 $end
$upscope $end
$scope module rand_delay_pf $end
$var wire 1 , clk $end
$var wire 32 +" d_p [31:0] $end
$var wire 1 &" en_p $end
$var wire 1 . reset_p $end
$var reg 32 ," q_np [31:0] $end
$upscope $end
$upscope $end
$scope module src $end
$var wire 1 , clk $end
$var wire 1 -" go $end
$var wire 1 ." index_en $end
$var wire 67 /" msg [66:0] $end
$var wire 1 } rdy $end
$var wire 1 . reset $end
$var wire 1 | val $end
$var wire 10 0" index_next [9:0] $end
$var wire 10 1" index [9:0] $end
$var wire 1 ; done $end
$scope module index_pf $end
$var wire 1 , clk $end
$var wire 10 2" d_p [9:0] $end
$var wire 1 ." en_p $end
$var wire 1 . reset_p $end
$var reg 10 3" q_np [9:0] $end
$upscope $end
$upscope $end
$upscope $end
$upscope $end
$upscope $end
$scope module vc_DFF_nf $end
$var wire 1 4" clk $end
$var wire 1 5" d_p $end
$var reg 1 6" q_np $end
$upscope $end
$scope module vc_DFF_pf $end
$var wire 1 7" clk $end
$var wire 1 8" d_p $end
$var reg 1 9" q_np $end
$upscope $end
$scope module vc_EDFF_nf $end
$var wire 1 :" clk $end
$var wire 1 ;" d_n $end
$var wire 1 <" en_n $end
$var reg 1 =" q_pn $end
$upscope $end
$scope module vc_EDFF_pf $end
$var wire 1 >" clk $end
$var wire 1 ?" d_p $end
$var wire 1 @" en_p $end
$var reg 1 A" q_np $end
$upscope $end
$scope module vc_ELatch_hl $end
$var wire 1 B" clk $end
$var wire 1 C" d_n $end
$var wire 1 D" en_p $end
$var reg 1 E" en_latched_pn $end
$var reg 1 F" q_np $end
$upscope $end
$scope module vc_ELatch_ll $end
$var wire 1 G" clk $end
$var wire 1 H" d_p $end
$var wire 1 I" en_n $end
$var reg 1 J" en_latched_np $end
$var reg 1 K" q_pn $end
$upscope $end
$scope module vc_Latch_hl $end
$var wire 1 L" clk $end
$var wire 1 M" d_n $end
$var reg 1 N" q_np $end
$upscope $end
$scope module vc_Latch_ll $end
$var wire 1 O" clk $end
$var wire 1 P" d_p $end
$var reg 1 Q" q_pn $end
$upscope $end
$scope module vc_RDFF_pf $end
$var wire 1 R" clk $end
$var wire 1 S" d_p $end
$var wire 1 T" reset_p $end
$var reg 1 U" q_np $end
$upscope $end
$enddefinitions $end
#0
$dumpvars
xU"
zT"
zS"
zR"
xQ"
zP"
zO"
xN"
zM"
zL"
xK"
xJ"
zI"
zH"
zG"
xF"
xE"
zD"
zC"
zB"
xA"
z@"
z?"
z>"
x="
z<"
z;"
z:"
x9"
z8"
z7"
x6"
z5"
z4"
b0 3"
b1 2"
b0 1"
b1 0"
bx /"
0."
0-"
b0 ,"
b0 +"
0*"
0)"
b0 ("
b0 '"
0&"
bx %"
b0 $"
0#"
bx ""
bx !"
bx ~
1}
0|
b0 {
b1 z
b10 y
b0 x
b1 w
b0 v
0u
0t
b0 s
b1 r
0q
0p
b10 o
b1 n
0m
b0 l
0k
b0 j
b0 i
b0 h
0g
0f
b0 e
0d
0c
0b
0a
b0 `
b0 _
b0 ^
b0 ]
b0 \
b0 [
b0 Z
b0 Y
b0 X
b0 W
b0 V
b0 U
b0 T
b0 S
bx R
bx Q
bx P
bx O
bx N
bx M
b0 L
0K
0J
0I
0H
bx G
bx F
bx E
0D
bx C
bx B
bx A
bx @
1?
b0 >
0=
0<
1;
bx :
bx 9
bx 8
bx 7
16
05
04
03
02
01
b10 0
b0 /
1.
b0 -
1,
1+
b11111100111111 *
b111010101101110011001000110010101100110011010010110111001100101011001000010000001100110011101010110111001100011 )
bz (
bz '
bz &
bz %
bz $
bz #
bz "
bz !
$end
#5
0,
#10
0}
b1 ("
1,
#15
0,
#20
b1 '"
b1 +"
b0 n
b0 r
b10 ("
b0 o
1,
#25
0,
#30
b1 o
1,
#35
0,
#40
b0 '"
b0 +"
b1 ("
b0 o
1,
#45
0,
#50
b1 n
b1 r
1}
b10 o
b0 ("
1,
#55
0,
#60
0}
b0 n
b0 r
b1 ("
b0 o
1,
#65
0,
#70
1,
#75
0,
#80
1}
b0 ("
b1 o
1,
#85
0,
#90
b0 o
1,
#95
0,
#100
1#"
1D
1."
1-"
15
0&"
0*"
0+
b0 8
b0 B
b0 F
b0 9
b0 C
b0 E
b0 7
b0 @
b0 G
b1 n
b1 r
1g
0?
1|
0;
b0 :
b0 A
b0 !"
b0 ""
b0 ~
b0 %"
b0 /"
b10 o
b1 /
1,
b1 -
#105
0,
#110
1=
b0 n
b0 r
b0 o
1,
#115
0,
#120
0D
0."
0-"
1*"
05
0}
1&"
0#"
0=
b1 ("
b1 o
1,
#125
0,
0.
#130
1D
1."
1-"
b1 n
b1 r
0*"
15
1}
b11111111111111111111111111111111 '"
b11111111111111111111111111111111 +"
0&"
b10 o
1)"
b10 ("
1,
#135
0,
#140
0D
0."
0-"
b1 8
b1 B
b1 F
b1 9
b1 C
b1 E
05
0}
b0 '"
b0 +"
1&"
1*"
1K
b0 n
b0 r
b10 0"
b10 2"
b100000000000000000000000000000001 :
b100000000000000000000000000000001 A
b100000000000000000000000000000001 !"
b100000000000000000000000000000001 ""
b100000000000000000000000000000001 ~
b100000000000000000000000000000001 %"
b100000000000000000000000000000001 /"
b1 1"
b1 3"
b1 ("
0)"
1a
b1 o
1,
#145
0,
#150
1D
1."
1-"
1J
0K
15
1}
b11111111111111111111111111111111 '"
b11111111111111111111111111111111 +"
0&"
0*"
1b
0a
1)"
1,
#155
0,
#160
b1 L
0D
0."
0-"
b1 W
b1 R
b0 O
b1 U
b11111111111111111111111111111111 9
b11111111111111111111111111111111 C
b11111111111111111111111111111111 E
05
0}
b0 '"
b0 +"
1&"
1*"
0J
1K
b1 V
b1 Q
b0 N
b1 Y
b1 T
b1 Z
b1 n
b1 r
b11 0"
b11 2"
b1111111111111111111111111111111100000000000000000000000000000001 :
b1111111111111111111111111111111100000000000000000000000000000001 A
b1111111111111111111111111111111100000000000000000000000000000001 !"
b1111111111111111111111111111111100000000000000000000000000000001 ""
b1111111111111111111111111111111100000000000000000000000000000001 ~
b1111111111111111111111111111111100000000000000000000000000000001 %"
b1111111111111111111111111111111100000000000000000000000000000001 /"
b10 1"
b10 3"
0)"
1c
0b
1a
b1 P
b0 M
b1 S
b1 \
b1 [
b10 o
1,
#165
0,
#170
1u
1t
1D
1."
1-"
1k
1f
1=
b0 n
b0 r
0m
0q
01
04
1J
0K
0*"
15
1}
b11111111111111111111111111111111 '"
b11111111111111111111111111111111 +"
0&"
1#"
b0 o
1<
1d
0c
1b
b1 ^
0a
1)"
b0 ("
1,
#175
0,
#180
b1111111111111111111111111111111111111111111111111111111111111111 L
0k
0u
0t
1H
b1111111111111111111111111111111111111111111111111111111111111111 W
b11111111111111111111111111111111 R
b1111111111111111111111111111111111111111111111111111111111111111 U
b11111111111111111111111111111111 8
b11111111111111111111111111111111 B
b11111111111111111111111111111111 F
b1 9
b1 C
b1 E
b0 '"
b0 +"
0f
0J
1K
b1 T
b1 V
b1 Q
b1 Z
b100 0"
b100 2"
b111111111111111111111111111111111 :
b111111111111111111111111111111111 A
b111111111111111111111111111111111 !"
b111111111111111111111111111111111 ""
b111111111111111111111111111111111 ~
b111111111111111111111111111111111 %"
b111111111111111111111111111111111 /"
b11 1"
b11 3"
0)"
0<
0d
1c
b1 _
0b
1a
b11111111111111111111111111111111 P
b11111111111111111111111111111111 S
b11111111111111111111111111111111 [
b10 w
b10 z
b1 x
b1 {
1,
#185
0,
#190
b1111111111111111111111111111111111111111111111111111111111111111 L
b1111111111111111111111111111111111111111111111111111111111111111 W
1k
1u
1t
b11111111111111111111111111111111 U
b1 Z
0D
0."
0-"
1*"
1f
0m
0q
1J
b1 V
b1 Q
b0 N
b1 Y
05
0}
1&"
0#"
b11111111111111111111111111111111 9
b11111111111111111111111111111111 C
b11111111111111111111111111111111 E
1<
1d
0c
b1 h
b1 j
b1 v
b1 >
b1 X
b1 `
b1 e
b1 i
1b
b1111111111111111111111111111111111111111111111111111111111111111 ^
b1 M
b11111111111111111111111111111111 T
b11111111111111111111111111111111 \
b0 P
b11111111111111111111111111111111 S
b1 [
b1 ("
b101 0"
b101 2"
b1111111111111111111111111111111111111111111111111111111111111111 :
b1111111111111111111111111111111111111111111111111111111111111111 A
b1111111111111111111111111111111111111111111111111111111111111111 !"
b1111111111111111111111111111111111111111111111111111111111111111 ""
b1111111111111111111111111111111111111111111111111111111111111111 ~
b1111111111111111111111111111111111111111111111111111111111111111 %"
b1111111111111111111111111111111111111111111111111111111111111111 /"
b100 1"
b100 3"
1,
#195
0,
#200
1D
1."
1-"
0k
0u
0t
15
1}
b11111111111111111111111111111111 '"
b11111111111111111111111111111111 +"
0&"
0*"
0f
0K
1)"
0<
0d
1c
b1111111111111111111111111111111111111111111111111111111111111111 _
0a
b11 w
b11 z
b10 x
b10 {
1,
#205
0,
#210
b1 R
b1 L
b1 W
1k
1u
1t
0H
b1111111111111111111111111111111100000000000000000000000000000001 U
1f
0m
0q
0J
1K
b11111111111111111111111111111111 T
b1 V
b1 Q
b1 Z
b0 '"
b0 +"
1#"
b11 8
b11 B
b11 F
b1000 9
b1000 C
b1000 E
1<
1d
b1111111111111111111111111111111111111111111111111111111111111111 h
b1111111111111111111111111111111111111111111111111111111111111111 j
b1111111111111111111111111111111111111111111111111111111111111111 v
b1111111111111111111111111111111111111111111111111111111111111111 >
b1111111111111111111111111111111111111111111111111111111111111111 X
b1111111111111111111111111111111111111111111111111111111111111111 `
b1111111111111111111111111111111111111111111111111111111111111111 e
b1111111111111111111111111111111111111111111111111111111111111111 i
0b
1a
b1 P
b0 M
b1111111111111111111111111111111000000000000000000000000000000001 S
b11111111111111111111111111111111 [
0)"
b0 ("
b110 0"
b110 2"
b100000000000000000000000000000000011 :
b100000000000000000000000000000000011 A
b100000000000000000000000000000000011 !"
b100000000000000000000000000000000011 ""
b100000000000000000000000000000000011 ~
b100000000000000000000000000000000011 %"
b100000000000000000000000000000000011 /"
b101 1"
b101 3"
1,
#215
0,
#220
b11000 L
b10 O
b11000 W
b10 R
0D
0."
0-"
1*"
b10 N
b11 Y
b11000 U
b11000 V
b10 Q
b1000 Z
b1000 8
b1000 B
b1000 F
b11111111111111111111111111111000 9
b11111111111111111111111111111000 C
b11111111111111111111111111111000 E
05
0}
b1 '"
b1 +"
1&"
0#"
1J
b111 0"
b111 2"
b1111111111111111111111111111100000000000000000000000000000001000 :
b1111111111111111111111111111100000000000000000000000000000001000 A
b1111111111111111111111111111100000000000000000000000000000001000 !"
b1111111111111111111111111111100000000000000000000000000000001000 ""
b1111111111111111111111111111100000000000000000000000000000001000 ~
b1111111111111111111111111111100000000000000000000000000000001000 %"
b1111111111111111111111111111100000000000000000000000000000001000 /"
b110 1"
b110 3"
b10 ("
0c
1b
b1 ^
b11000 T
b11 \
b10 P
b10 M
b11000 S
b1000 [
b100 w
b100 z
b11 x
b11 {
1,
#225
0,
#230
0u
0t
0k
0f
0=
b1 n
b1 r
0K
b0 '"
b0 +"
b101 w
b101 z
b100 x
b100 {
b10 o
0<
0d
1c
b1 _
b11000 ^
0a
1)"
b1 $"
b1 ,"
1,
#235
0,
#240
15
b11111111111111111111111111111111 '"
b11111111111111111111111111111111 +"
0&"
06
1I
1q
11
14
0J
b0 n
b0 r
1m
b1 ("
b0 $"
b0 ,"
1<
1d
b1 h
b1 j
b1 v
b1 >
b1 X
b1 `
b1 e
b1 i
b11000 _
0b
b1 o
1,
#245
0,
#250
1."
1-"
1D
1}
0*"
1u
1t
16
0I
01
04
0q
1f
1=
b11111111111111111111111111111111 n
b11111111111111111111111111111111 r
0m
1p
b10 o
b10 ("
1,
#255
0,
#260
0."
0-"
b1111111111111111111111111111111111111111111111111111111111000000 L
0D
0}
1H
b1111111111111111111111111111111111111111111111111111111111000000 W
b11111111111111111111111111111111 R
b0 O
0u
0t
06
1I
11
14
b11111111111111111111111111111000 8
b11111111111111111111111111111000 B
b11111111111111111111111111111000 F
0#"
b0 '"
b0 +"
1&"
1*"
0K
b0 N
b1000 Y
b1111111111111111111111111111111111111111111111111111111111000000 U
b1000000 V
b1 Q
b1000 Z
0f
0=
b0 n
b0 r
1m
1q
b1000 0"
b1000 2"
b1111111111111111111111111111100011111111111111111111111111111000 :
b1111111111111111111111111111100011111111111111111111111111111000 A
b1111111111111111111111111111100011111111111111111111111111111000 !"
b1111111111111111111111111111100011111111111111111111111111111000 ""
b1111111111111111111111111111100011111111111111111111111111111000 ~
b1111111111111111111111111111100011111111111111111111111111111000 %"
b1111111111111111111111111111100011111111111111111111111111111000 /"
b111 1"
b111 3"
b0 ("
0)"
0c
b11000 h
b11000 j
b11000 v
b11000 >
b11000 X
b11000 `
b11000 e
b11000 i
1a
b0 M
b1000000 T
b1000 \
b11111111111111111111111111111 P
b11111111111111111111111111111000000 S
b11111111111111111111111111111000 [
b1 o
0p
b110 w
b110 z
b101 x
b101 {
1,
#265
0,
#270
1."
1-"
1D
1}
0*"
1K
1u
1t
16
0I
01
04
0q
1f
1=
b11111111111111111111111111111111 n
b11111111111111111111111111111111 r
0m
1k
b11111111111111111111111111111111 '"
b11111111111111111111111111111111 +"
0&"
1p
b0 o
1)"
b10 ("
1,
#275
0,
#280
b1000000 L
b1000000 W
b1 R
b0 O
0D
0."
0-"
0H
b1111111111111111111111111111100000000000000000000000000001000000 U
0u
0t
b10000000000000000000000000000 8
b10000000000000000000000000000 B
b10000000000000000000000000000 F
b1101111010101101101111101110 9
b1101111010101101101111101110 C
b1101111010101101101111101110 E
05
0}
b0 '"
b0 +"
1&"
1*"
1J
b1000000 V
b1 Q
b0 N
b1000 Y
0k
0f
0=
b0 n
b0 r
b1001 0"
b1001 2"
b110111101010110110111110111000010000000000000000000000000000 :
b110111101010110110111110111000010000000000000000000000000000 A
b110111101010110110111110111000010000000000000000000000000000 !"
b110111101010110110111110111000010000000000000000000000000000 ""
b110111101010110110111110111000010000000000000000000000000000 ~
b110111101010110110111110111000010000000000000000000000000000 %"
b110111101010110110111110111000010000000000000000000000000000 /"
b1000 1"
b1000 3"
b1 ("
0)"
0<
0d
1b
b1111111111111111111111111111111111111111111111111111111111000000 ^
b1 P
b1111111111111111111111111111000000000000000000000000000001000000 S
b11111111111111111111111111111000000 T
b11111111111111111111111111111000 \
b1 o
0p
b111 w
b111 z
b110 x
b110 {
1,
#285
0,
#290
1D
1."
1-"
0K
0*"
15
1}
b11111111111111111111111111111111 '"
b11111111111111111111111111111111 +"
0&"
1#"
1c
b1111111111111111111111111111111111111111111111111111111111000000 _
b1000000 ^
0a
1)"
b0 ("
1,
#295
0,
#300
b0 R
b11011110101011011011111011100000000000000000000000000000 L
b11011110101011011011111011100000000000000000000000000000 W
1&"
1*"
0."
0-"
0D
b10000000000000000000000000000 Y
b11011110101011011011111011100000000000000000000000000000 U
b1101111010101101101111101110 O
b11011110101011011011111011100000000000000000000000000000 V
b0 Q
b1101111010101101101111101110 N
b1101111010101101101111101110 Z
b11011110101011011011111011101111 9
b11011110101011011011111011101111 C
b11011110101011011011111011101111 E
0#"
05
0}
b1 '"
b1 +"
06
1I
1m
1q
11
14
0J
0K
b1010 0"
b1010 2"
b1101111010101101101111101110111100010000000000000000000000000000 :
b1101111010101101101111101110111100010000000000000000000000000000 A
b1101111010101101101111101110111100010000000000000000000000000000 !"
b1101111010101101101111101110111100010000000000000000000000000000 ""
b1101111010101101101111101110111100010000000000000000000000000000 ~
b1101111010101101101111101110111100010000000000000000000000000000 %"
b1101111010101101101111101110111100010000000000000000000000000000 /"
b1001 1"
b1001 3"
b10 ("
0)"
1<
1d
b1111111111111111111111111111111111111111111111111111111111000000 h
b1111111111111111111111111111111111111111111111111111111111000000 j
b1111111111111111111111111111111111111111111111111111111111000000 v
b1111111111111111111111111111111111111111111111111111111111000000 >
b1111111111111111111111111111111111111111111111111111111111000000 X
b1111111111111111111111111111111111111111111111111111111111000000 `
b1111111111111111111111111111111111111111111111111111111111000000 e
b1111111111111111111111111111111111111111111111111111111111000000 i
b1000000 _
0b
1a
b11011110101011011011111011100000000000000000000000000000 T
b10000000000000000000000000000 \
b0 P
b1101111010101101101111101110 M
b11011110101011011011111011100000000000000000000000000000 S
b1101111010101101101111101110 [
1,
#305
0,
#310
1#"
1K
1u
1t
16
0I
01
04
0q
1f
1=
b11111111111111111111111111111111 n
b11111111111111111111111111111111 r
0m
b0 '"
b0 +"
1p
b10 o
1)"
b1 $"
b1 ,"
b0 ("
1,
#315
0,
#320
0."
0-"
0u
0t
06
1I
11
14
0#"
1*"
15
0}
b11111111111111111111111111111111 '"
b11111111111111111111111111111111 +"
0&"
0J
0K
0f
0=
b1 n
b1 r
1m
1q
b1 ("
b0 $"
b0 ,"
0c
b1000000 h
b1000000 j
b1000000 v
b1000000 >
b1000000 X
b1000000 `
b1000000 e
b1000000 i
1b
b11011110101011011011111011100000000000000000000000000000 ^
0a
0p
b1000 w
b1000 z
b111 x
b111 {
1,
#325
0,
#330
b0 n
b0 r
1k
1p
b1 l
b1 s
b0 o
b0 ("
1,
#335
0,
#340
1#"
1."
1-"
1D
1}
0*"
1J
1u
1t
16
0I
01
04
0q
1f
1=
b11111111111111111111111111111111 n
b11111111111111111111111111111111 r
0m
b0 l
b0 s
1,
#345
0,
#350
b1111110111101010110110111110111011110000000000000000000000000000 L
0u
0t
1H
b1111110111101010110110111110111011110000000000000000000000000000 W
b11111111111111111111111111111110 R
b1111110111101010110110111110111011110000000000000000000000000000 U
b11111110101011011011111011101111 O
0D
0k
0f
0=
b0 n
b0 r
0J
1K
b1000010101001001000001000100010000000000000000000000000000 T
b1000010101001001000001000100010000000000000000000000000000 V
b10 Q
b1010100100100000100010001 N
b100001010100100100000100010001 Z
0#"
bx 8
bx B
bx F
bx 9
bx C
bx E
bx 7
bx @
bx G
0."
0-"
05
0}
b0 '"
b0 +"
b1001 w
b1001 z
b1000 x
b1000 {
0p
b1 o
0<
0d
1c
b11011110101011011011111011100000000000000000000000000000 _
0b
1a
b1101 P
b1110101011011011111011101111 M
b110111101010110110111110111011110000000000000000000000000000 S
b11011110101011011011111011101111 [
0)"
b1 ("
b1011 0"
b1011 2"
bx :
bx A
bx !"
bx ""
bx ~
bx %"
bx /"
0|
1;
b1010 1"
b1010 3"
1,
#355
0,
#360
1k
1u
1t
0q
1J
0K
1f
1=
0m
1<
1d
0c
b11011110101011011011111011100000000000000000000000000000 h
b11011110101011011011111011100000000000000000000000000000 j
b11011110101011011011111011100000000000000000000000000000 v
b11011110101011011011111011100000000000000000000000000000 >
b11011110101011011011111011100000000000000000000000000000 X
b11011110101011011011111011100000000000000000000000000000 `
b11011110101011011011111011100000000000000000000000000000 e
b11011110101011011011111011100000000000000000000000000000 i
1b
b1111110111101010110110111110111011110000000000000000000000000000 ^
0a
b0 o
1,
#365
0,
#370
0u
0t
0k
0f
0=
b1 n
b1 r
0J
b1010 w
b1010 z
b1001 x
b1001 {
b10 o
0<
0d
1c
b1111110111101010110110111110111011110000000000000000000000000000 _
0b
1,
#375
0,
#380
06
1I
1m
1q
11
14
1<
1d
0c
b1111110111101010110110111110111011110000000000000000000000000000 h
b1111110111101010110110111110111011110000000000000000000000000000 j
b1111110111101010110110111110111011110000000000000000000000000000 v
b1111110111101010110110111110111011110000000000000000000000000000 >
b1111110111101010110110111110111011110000000000000000000000000000 X
b1111110111101010110110111110111011110000000000000000000000000000 `
b1111110111101010110110111110111011110000000000000000000000000000 e
b1111110111101010110110111110111011110000000000000000000000000000 i
1,
#385
0,
#390
b0 n
b0 r
1p
b1 l
b1 s
b0 ("
1,
#395
0,
#400
1u
1t
16
0I
01
04
b1 '"
b1 +"
0q
1f
1=
b11111111111111111111111111111111 n
b11111111111111111111111111111111 r
0m
b10 ("
b0 l
b0 s
1,
#405
0,
#410
0t
0u
1+
0f
0=
b0 n
b0 r
b1011 w
b1011 z
0g
1?
b1010 x
b1010 {
0p
b0 o
0<
0d
1,
#415
0,
#420
b0 '"
b0 +"
b1 n
b1 r
b1 ("
b10 o
1,
#425
0,
#430
b0 n
b0 r
b1 '"
b1 +"
b0 o
b10 ("
1,
#435
0,
#440
1}
b0 '"
b0 +"
b0 ("
1,
#445
0,
#450
0}
b1 ("
1,
#455
0,
#460
1,
#465
0,
#470
b1 n
b1 r
b1 '"
b1 +"
b10 o
b10 ("
1,
#475
0,
#480
b0 '"
b0 +"
b0 n
b0 r
b1 ("
b0 o
1,
#485
0,
#490
b1 n
b1 r
b10 o
1,
#495
0,
#500
b1 '"
b1 +"
b10 ("
1,
#505
0,
#510
b0 n
b0 r
b1 o
1,
#515
0,
#520
b0 '"
b0 +"
b1 ("
b0 o
1,
#525
0,
#530
1,
#535
0,
#540
1}
b1 n
b1 r
b0 ("
b10 o
1,
#545
0,
#550
b0 n
b0 r
b1 o
1,
#555
0,
#560
0}
b1 '"
b1 +"
b10 ("
b0 o
1,
#565
0,
#570
1,
#575
0,
#580
b1 o
1,
#585
0,
#590
b0 '"
b0 +"
b1 ("
1,
#595
0,
#600
b1 '"
b1 +"
b1 n
b1 r
b10 ("
b10 o
1,
#605
0,
#610
b0 '"
b0 +"
b1 ("
1,
#615
0,
#620
b1 '"
b1 +"
b0 n
b0 r
b10 ("
b1 o
1,
#625
0,
#630
1}
b0 '"
b0 +"
b0 ("
1,
#635
0,
#640
0}
b1 '"
b1 +"
b10 ("
1,
#645
0,
#650
1}
b0 '"
b0 +"
b0 o
b0 ("
1,
#655
0,
#660
0}
b1 '"
b1 +"
b1 n
b1 r
b10 ("
b10 o
1,
#665
0,
#670
b0 n
b0 r
b0 '"
b0 +"
b0 o
b1 ("
1,
#675
0,
#680
1}
b1 n
b1 r
b0 ("
b10 o
1,
#685
0,
#690
b0 n
b0 r
0}
b1 '"
b1 +"
b1 o
b10 ("
1,
#695
0,
#700
b0 '"
b0 +"
b1 n
b1 r
b1 ("
b10 o
1,
#705
0,
#710
b0 n
b0 r
1}
b1 o
b0 ("
1,
#715
0,
#720
0}
b1 ("
1,
#725
0,
#730
1,
#735
0,
#740
1}
b0 ("
b0 o
1,
#745
0,
#750
b1 o
1,
#755
0,
#760
b0 o
1,
#765
0,
#770
0}
b1 '"
b1 +"
b10 ("
1,
#775
0,
#780
b0 '"
b0 +"
b1 n
b1 r
b1 ("
b10 o
1,
#785
0,
#790
b0 n
b0 r
b1 '"
b1 +"
b1 o
b10 ("
1,
#795
0,
#800
b0 '"
b0 +"
b1 ("
1,
#805
0,
#810
b1 '"
b1 +"
b10 ("
1,
#815
0,
#820
b0 '"
b0 +"
b1 n
b1 r
b1 ("
b10 o
1,
#825
0,
#830
1,
#835
0,
#840
b0 n
b0 r
b0 o
1,
#845
0,
#850
1}
b0 ("
1,
#855
0,
#860
b1 n
b1 r
b10 o
1,
#865
0,
#870
b0 n
b0 r
0}
b1 '"
b1 +"
b1 o
b10 ("
1,
#875
0,
#880
b0 o
1,
#885
0,
#890
1}
b0 '"
b0 +"
b0 ("
1,
#895
0,
#900
0}
b1 '"
b1 +"
b10 ("
b1 o
1,
#905
0,
#910
b1 n
b1 r
1}
b0 '"
b0 +"
b10 o
b0 ("
1,
#915
0,
#920
b0 n
b0 r
b1 o
1,
#925
0,
#930
b1 n
b1 r
0}
b10 o
b1 ("
1,
#935
0,
#940
b1 '"
b1 +"
b0 n
b0 r
b10 ("
b0 o
1,
#945
0,
#950
b0 '"
b0 +"
b1 ("
1,
#955
0,
#960
b1 '"
b1 +"
b1 n
b1 r
b10 ("
b10 o
1,
#965
0,
#970
1,
#975
0,
#980
1}
b0 '"
b0 +"
b0 n
b0 r
b0 ("
b0 o
1,
#985
0,
#990
b1 n
b1 r
0}
b1 '"
b1 +"
b10 o
b10 ("
1,
#995
0,
#1000
b0 n
b0 r
b0 o
1,
#1005
0,
#1010
b1 o
1,
#1015
0,
#1020
b0 '"
b0 +"
b1 ("
1,
#1025
0,
#1030
1}
b0 o
b0 ("
1,
#1035
0,
